50명의 유저를 기반으로 하지만 유저수에 따라서 제한구역이 생김,






클라이언트 기준

1. 통신으로 부터 클라이언트가 받는 값

- 누가 누구를 무엇으로 죽였는가

- 내가 존재하는 인덱스 근처 구역의 유저들의 상태와 입력(나 포함)



2. 통신으로 클라가 보내주는 값

- 나의 현재 구역(인덱스)

- 나의 현재 상태(누구를 죽였다. // 누구한테 죽었다.)

- 나의 프레임별 입력

----------------------------------------------------------------


서버 기준

1. 서버는 클라 50명에게 1초에 10번정도 통신을 한다.

- 클라에게 각 클라들의 입력값을 전달한다.

- 죽음 판정 
1) 각 클라로 부터 누구를 죽였다를 받는다.
2) 나의 상태가 타인에 의해 변경되었다면 그 상태로 갱신 


